digraph dependencies {
    label="\nPackage ti.mas.fract Dependency Graph";
    size="7.5,10";
    rankdir=LR;
    ranksep=".75";
    concentrate="true";
    node [fixedsize=true, width=1.5, style=filled, color=black];
    node [font=Helvetica, fontsize=12, fillcolor=lightgrey];
    ti_mas_fract [shape=record,label="ti.mas.fract|2, 0, 8, 1", URL="package.rel.xml"];
    node [fontsize=10, fillcolor=white];

    edge [style=solid, color=blue]
    ti_mas_types [shape=record,label="ti.mas.types|5, 0, 8, 1", URL="../../types/package/package.rel.svg"];
    ti_mas_fract -> ti_mas_types;
    ti_mas_swtools [shape=record,label="ti.mas.swtools|3, 0, 0, 0", URL="../../swtools/package/package.rel.svg"];
    ti_mas_fract -> ti_mas_swtools;

    edge [style=solid, color=lightgrey]
    ti_targets [shape=record,label="ti.targets|1, 0, 3", URL="../../../../../../apps/ti/xdc/xdctools_3_20_05_76/packages/ti/targets/package/package.rel.svg"];
    ti_mas_fract -> ti_targets;
    xdc_services_intern_gen [shape=record,label="xdc.services.intern.gen|1, 0, 0, 0", URL="../../../../../../apps/ti/xdc/xdctools_3_20_05_76/packages/xdc/services/intern/gen/package/package.rel.svg"];
    ti_mas_fract -> xdc_services_intern_gen;
    xdc_services_spec [shape=record,label="xdc.services.spec|1, 0, 0, 0", URL="../../../../../../apps/ti/xdc/xdctools_3_20_05_76/packages/xdc/services/spec/package/package.rel.svg"];
    ti_mas_fract -> xdc_services_spec;
    xdc_shelf [shape=record,label="xdc.shelf|1, 0, 0", URL="../../../../../../apps/ti/xdc/xdctools_3_20_05_76/packages/xdc/shelf/package/package.rel.svg"];
    ti_mas_fract -> xdc_shelf;
    gnu_targets [shape=record,label="gnu.targets|1, 0, 1", URL="../../../../../../apps/ti/xdc/xdctools_3_20_05_76/packages/gnu/targets/package/package.rel.svg"];
    ti_mas_fract -> gnu_targets;
    gnu_targets_arm [shape=record,label="gnu.targets.arm|1, 0, 0, 0", URL="../../../../../../apps/ti/xdc/xdctools_3_20_05_76/packages/gnu/targets/arm/package/package.rel.svg"];
    ti_mas_fract -> gnu_targets_arm;
    xdc [shape=record,label="xdc|1, 1, 1", URL="../../../../../../apps/ti/xdc/xdctools_3_20_05_76/packages/xdc/package/package.rel.svg"];
    ti_mas_fract -> xdc;
    ti_targets_elf [shape=record,label="ti.targets.elf|1, 0, 0", URL="../../../../../../apps/ti/xdc/xdctools_3_20_05_76/packages/ti/targets/elf/package/package.rel.svg"];
    ti_mas_fract -> ti_targets_elf;
    ti_mas_fract -> ti_mas_swtools;
    xdc_bld [shape=record,label="xdc.bld|1, 0, 2", URL="../../../../../../apps/ti/xdc/xdctools_3_20_05_76/packages/xdc/bld/package/package.rel.svg"];
    ti_mas_fract -> xdc_bld;
    xdc_services_global [shape=record,label="xdc.services.global|1, 0, 0", URL="../../../../../../apps/ti/xdc/xdctools_3_20_05_76/packages/xdc/services/global/package/package.rel.svg"];
    ti_mas_fract -> xdc_services_global;
    xdc_services_intern_cmd [shape=record,label="xdc.services.intern.cmd|1, 0, 0, 0", URL="../../../../../../apps/ti/xdc/xdctools_3_20_05_76/packages/xdc/services/intern/cmd/package/package.rel.svg"];
    ti_mas_fract -> xdc_services_intern_cmd;
    xdc_services_intern_xsr [shape=record,label="xdc.services.intern.xsr|1, 0, 0", URL="../../../../../../apps/ti/xdc/xdctools_3_20_05_76/packages/xdc/services/intern/xsr/package/package.rel.svg"];
    ti_mas_fract -> xdc_services_intern_xsr;

    edge [style=solid, color=blue]
    xdc_services_intern_xsr -> xdc_services_global;

    edge [style=solid, color=lightgrey]
    xdc_services_intern_xsr -> xdc_services_spec;
    xdc_utils_tconf [shape=record,label="xdc.utils.tconf|not found"style=rounded, ];
    xdc_services_intern_xsr -> xdc_utils_tconf;
    xdc_services_intern_xsr -> xdc_shelf;
    xdc_services_intern_xsr -> xdc_services_global;
    xdc_services_intern_xsr -> xdc_services_intern_cmd;
    xdc_services_intern_xsr -> xdc_services_intern_gen;

    edge [style=solid, color=blue]

    edge [style=solid, color=lightgrey]

    edge [style=solid, color=blue]
    xdc_services_intern_cmd -> xdc_shelf;
    xdc_services_intern_cmd -> xdc_services_spec;
    xdc_services_intern_cmd -> xdc_services_global;
    xdc_services_intern_cmd -> xdc_services_intern_gen;

    edge [style=solid, color=lightgrey]
    xdc_services_intern_cmd -> xdc_services_spec;
    xdc_services_intern_cmd -> xdc_utils_tconf;
    xdc_services_intern_cmd -> xdc_shelf;
    xdc_services_intern_cmd -> xdc_services_global;
    xdc_services_intern_cmd -> xdc_services_intern_xsr;
    xdc_services_intern_cmd -> xdc_services_intern_gen;

    edge [style=solid, color=blue]

    edge [style=solid, color=lightgrey]
    xdc_services_global -> xdc_services_spec;
    xdc_services_global -> xdc_utils_tconf;
    xdc_services_global -> xdc_shelf;
    xdc_services_global -> xdc_services_intern_cmd;
    xdc_services_global -> xdc_services_intern_xsr;
    xdc_services_global -> xdc_services_intern_gen;

    edge [style=solid, color=blue]
    xdc_bld -> xdc_services_global;
    xdc_bld -> xdc_services_intern_cmd;

    edge [style=solid, color=lightgrey]
    xdc_bld -> xdc_services_spec;
    xdc_bld -> xdc_utils_tconf;
    xdc_bld -> xdc_shelf;
    xdc_bld -> xdc_services_global;
    xdc_bld -> xdc_services_intern_cmd;
    xdc_bld -> xdc_services_intern_xsr;
    xdc_bld -> xdc;
    xdc_bld -> xdc_services_intern_gen;

    edge [style=solid, color=blue]

    edge [style=solid, color=lightgrey]
    ti_targets_elf -> xdc_services_intern_cmd;
    ti_targets_elf -> xdc_services_intern_xsr;
    ti_targets_elf -> xdc_services_global;
    ti_targets_elf -> xdc_services_intern_gen;
    ti_targets_elf -> ti_targets;
    ti_targets_elf -> xdc_shelf;
    ti_targets_elf -> xdc_services_spec;

    edge [style=solid, color=blue]

    edge [style=solid, color=lightgrey]
    xdc -> xdc_services_global;
    xdc -> xdc_utils_tconf;

    edge [style=solid, color=blue]
    gnu_targets_arm -> gnu_targets;

    edge [style=solid, color=lightgrey]
    gnu_targets_arm -> xdc_services_intern_cmd;
    gnu_targets_arm -> xdc_services_intern_xsr;
    gnu_targets_arm -> xdc_services_global;
    gnu_targets_arm -> xdc_services_intern_gen;
    gnu_targets_arm -> gnu_targets;
    gnu_targets_arm -> xdc_shelf;
    gnu_targets_arm -> xdc_services_spec;

    edge [style=solid, color=blue]

    edge [style=solid, color=lightgrey]
    gnu_targets -> xdc_services_intern_cmd;
    gnu_targets -> xdc_services_intern_xsr;
    gnu_targets -> xdc_services_global;
    gnu_targets -> xdc_services_intern_gen;
    gnu_targets -> xdc_shelf;
    gnu_targets -> xdc_services_spec;

    edge [style=solid, color=blue]

    edge [style=solid, color=lightgrey]
    xdc_shelf -> xdc_services_spec;
    xdc_shelf -> xdc_utils_tconf;
    xdc_shelf -> xdc_services_global;
    xdc_shelf -> xdc_services_intern_cmd;
    xdc_shelf -> xdc_services_intern_xsr;
    xdc_shelf -> xdc_services_intern_gen;

    edge [style=solid, color=blue]
    xdc_services_spec -> xdc_shelf;

    edge [style=solid, color=lightgrey]
    xdc_services_spec -> xdc_utils_tconf;
    xdc_services_spec -> xdc_shelf;
    xdc_services_spec -> xdc_services_global;
    xdc_services_spec -> xdc_services_intern_cmd;
    xdc_services_spec -> xdc_services_intern_xsr;
    xdc_services_spec -> xdc_services_intern_gen;

    edge [style=solid, color=blue]
    xdc_services_intern_gen -> xdc_shelf;
    xdc_services_intern_gen -> xdc_services_spec;
    xdc_services_intern_gen -> xdc_services_global;
    xdc_services_intern_gen -> xdc_services_intern_xsr;

    edge [style=solid, color=lightgrey]
    xdc_services_intern_gen -> xdc_services_spec;
    xdc_services_intern_gen -> xdc_utils_tconf;
    xdc_services_intern_gen -> xdc_shelf;
    xdc_services_intern_gen -> xdc_services_global;
    xdc_services_intern_gen -> xdc_services_intern_cmd;
    xdc_services_intern_gen -> xdc_services_intern_xsr;

    edge [style=solid, color=blue]

    edge [style=solid, color=lightgrey]
    ti_targets -> xdc_services_intern_cmd;
    ti_targets -> xdc_services_intern_xsr;
    ti_targets -> xdc_services_global;
    ti_targets -> xdc_services_intern_gen;
    ti_targets -> xdc_shelf;
    ti_targets -> xdc_services_spec;

    edge [style=solid, color=blue]

    edge [style=solid, color=lightgrey]
    ti_mas_swtools -> ti_targets;
    ti_mas_swtools -> xdc_services_intern_gen;
    ti_mas_swtools -> xdc_services_spec;
    ti_mas_swtools -> xdc_shelf;
    ti_mas_swtools -> gnu_targets;
    ti_mas_swtools -> gnu_targets_arm;
    ti_mas_swtools -> ti_targets_elf;
    ti_mas_swtools -> xdc_services_global;
    ti_mas_swtools -> xdc_services_intern_cmd;
    ti_mas_swtools -> xdc_services_intern_xsr;

    edge [style=solid, color=blue]
    ti_mas_types -> ti_mas_swtools;

    edge [style=solid, color=lightgrey]
    ti_mas_types -> ti_targets;
    ti_mas_types -> xdc_services_intern_gen;
    ti_mas_types -> xdc_services_spec;
    ti_mas_types -> xdc_shelf;
    ti_mas_types -> gnu_targets;
    ti_mas_types -> gnu_targets_arm;
    ti_mas_types -> ti_targets_elf;
    ti_mas_types -> ti_mas_swtools;
    ti_mas_types -> xdc_services_global;
    ti_mas_types -> xdc_services_intern_cmd;
    ti_mas_types -> xdc_services_intern_xsr;
}
