    101   -36.6      
    105   -35.0      
    113   -31.7      
    118   -29.8      
    125   -27.3      
    131   -25.4      
    141   -23.6      
    151   -21.6      
    161   -19.6      
    169   -18.8      
    181   -17.9      
    191   -17.4      
    201   -16.7      
    211   -16.2      
    225   -15.5      
    236   -15.2      
    251   -15.0      
    265   -14.9      
    281   -15.1      
    301   -15.3      
    315   -15.0      
    335   -14.5      
    355   -14.6      
    375   -15.0      
    403   -15.2      
    425   -14.9      
    451   -15.3      
    475   -14.6      
    503   -15.3      
    530   -15.4      
    560   -15.3      
    603   -15.3      
    630   -15.6      
    667   -15.0      
    713   -14.7      
    753   -14.3      
    803   -15.1      
    847   -14.3      
    903   -15.1      
    955   -13.8      
   1003   -13.0 
   1057   -13.0      
   1123   -13.9      
   1185   -13.8      
   1253   -13.2      
   1317   -13.6      
   1403   -13.6      
   1505   -15.6      
   1607   -16.4      
   1696   -16.0      
   1803   -18.2      
   1905   -19.2   
   2005   -17.4      
   2117   -18.5      
   2245   -16.3      
   2367   -14.4      
   2509   -15.7      
   2643   -16.0      
   2803   -14.2      
   3007   -15.2      
   3159   -14.9      
   3341   -15.2      
   3559   -17.4      
   3761   -22.7      
   3971   -39.8      