 100    -Inf     0
 125    -Inf     0
 160    -Inf     0
 200    -Inf     0
 250    -Inf     0
 315     -15     0
 400     -12     0
 500     -12     0
 630     -12     0
 800     -12     0
1000     -12     0
1250     -12     0
1600     -12     0
2000     -12     0
2500     -12     0
3100     -12     0
4000    -Inf     0
8000    -Inf     0
