 100     -Inf   -7.0000
 106     -Inf   -5.9940
 112     -Inf   -5.0435
 118     -Inf   -4.1425
 125     -Inf   -3.1476
 132     -Inf   -2.2069
 140     -Inf   -1.1911
 150     -Inf    0.0000
 160     -Inf    0.0000
 170     -Inf    0.0000
 180     -Inf    0.0000
 190     -Inf    0.0000
 200     -Inf    0.0000
 212     -Inf    0.0000
 224     -Inf    0.0000
 236     -Inf    0.0000
 250     -Inf    0.0000
 265     -Inf    0.0000
 280     -Inf    0.0000
 300 -11.0000    0.0000
 315 -10.7888    0.0000
 335 -10.5224    0.0000
 355 -10.2714    0.0000
 375 -10.0342    0.0000
 400  -9.7549    0.0000
 425  -9.4925    0.0000
 450  -9.2451    0.0000
 475  -9.0111    0.0000
 500  -8.7891    0.0000
 530  -8.5369    0.0000
 560  -8.2986    0.0000
 600  -8.0000    0.0000
 630  -8.0000    0.0000
 670  -8.0000    0.0000
 710  -8.0000    0.0000
 750  -8.0000    0.0000
 800  -8.0000    0.0000
 850  -8.0000    0.0000
 900  -8.0000    0.0000
 950  -8.0000    0.0000
1000  -8.0000    0.0000
1060  -8.0000    0.4203
1120  -8.0000    0.8175
1180  -8.0000    1.1939
1250  -8.0000    1.6096
1320  -8.0000    2.0027
1400  -8.0000    2.4271
1500  -8.0000    2.9248
1600  -8.0000    3.3904
1700  -8.0000    3.8277
1800  -8.0000    4.2400
1900  -8.0000    4.6300
2000  -8.0000    5.0000
2120  -8.0000    5.0000
2240  -8.0000    5.0000
2360  -8.0000    5.0000
2500  -8.0000    5.0000
2650  -8.0000    5.0000
2800  -8.0000    5.0000
3000  -8.0000    5.0000
3150  -9.1694    5.0000
3350 -10.6449    5.0000
3399 -11.0000    5.0000
3400     -Inf    5.0000
3550     -Inf    3.8395
3750     -Inf    2.3663
4000     -Inf    0.6315
8000     -Inf    0.6315
