 100     -Inf   -7.0000
 106     -Inf   -5.9940
 112     -Inf   -5.0435
 118     -Inf   -4.1425
 125     -Inf   -3.1476
 132     -Inf   -2.2069
 140     -Inf   -1.1911
 150     -Inf    0.0000
 160     -Inf    0.0000
 170     -Inf    0.0000
 180     -Inf    0.0000
 190     -Inf    0.0000
 200     -Inf    0.0000
 212     -Inf    0.0000
 224     -Inf    0.0000
 236     -Inf    0.0000
 250     -Inf    0.0000
 265     -Inf    0.0000
 280     -Inf    0.0000
 300 -12.0000    0.0000
 315 -11.7569    0.0000
 335 -11.4501    0.0000
 355 -11.1611    0.0000
 375 -10.8880    0.0000
 400 -10.5663    0.0000
 425 -10.2642    0.0000
 450  -9.9794    0.0000
 475  -9.7099    0.0000
 500  -9.4543    0.0000
 530  -9.1639    0.0000
 560  -8.8895    0.0000
 600  -8.5457    0.0000
 630  -8.3026    0.0000
 670  -7.9958    0.0000
 710  -7.7068    0.0000
 750  -7.4337    0.0000
 800  -7.1120    0.0000
 850  -6.8099    0.0000
 900  -6.5251    0.0000
 950  -6.2556    0.0000
1000  -6.0000    0.0000
1060  -6.0000    0.4203
1120  -6.0000    0.8175
1180  -6.0000    1.1939
1250  -6.0000    1.6096
1320  -6.0000    2.0027
1400  -6.0000    2.4271
1500  -6.0000    2.9248
1600  -6.0000    3.3904
1700  -6.0000    3.8277
1800  -6.0000    4.2400
1900  -6.0000    4.6300
2000  -6.0000    5.0000
2120  -6.0000    5.0000
2240  -6.0000    5.0000
2360  -6.0000    5.0000
2500  -6.0000    5.0000
2650  -6.0000    5.0000
2800  -6.0000    5.0000
3000  -6.0000    5.0000
3150  -7.1694    5.0000
3350  -8.6449    5.0000
3399  -9.0000    5.0000
3400     -Inf    5.0000
3550     -Inf    3.6718
3750     -Inf    1.9856
4000     -Inf    0.0000
8000     -Inf    0.0000
