 100     -Inf   -7.0000
 106     -Inf   -5.9940
 112     -Inf   -5.0435
 118     -Inf   -4.1425
 125     -Inf   -3.1476
 132     -Inf   -2.2069
 140     -Inf   -1.1911
 150     -Inf    0.0000
 160     -Inf    0.0000
 170     -Inf    0.0000
 180     -Inf    0.0000
 190     -Inf    0.0000
 200     -Inf    0.0000
 212     -Inf    0.0000
 224     -Inf    0.0000
 236     -Inf    0.0000
 250     -Inf    0.0000
 265     -Inf    0.0000
 280     -Inf    0.0000
 300  -8.0000    0.0000
 315  -7.8090    0.0000
 335  -7.5680    0.0000
 355  -7.3409    0.0000
 375  -7.1263    0.0000
 400  -6.8737    0.0000
 425  -6.6363    0.0000
 450  -6.4125    0.0000
 475  -6.2008    0.0000
 500  -6.0000    0.0000
 530  -6.0000    0.0000
 560  -6.0000    0.0000
 600  -6.0000    0.0000
 630  -6.0000    0.0000
 670  -6.0000    0.0000
 710  -6.0000    0.0000
 750  -6.0000    0.0000
 800  -6.0000    0.0000
 850  -6.0000    0.0000
 900  -6.0000    0.0000
 950  -6.0000    0.0000
1000  -6.0000    0.0000
1060  -6.0000    0.4203
1120  -6.0000    0.8175
1180  -6.0000    1.1939
1250  -6.0000    1.6096
1320  -6.0000    2.0027
1400  -6.0000    2.4271
1500  -6.0000    2.9248
1600  -6.0000    3.3904
1700  -6.0000    3.8277
1800  -6.0000    4.2400
1900  -6.0000    4.6300
2000  -6.0000    5.0000
2120  -6.0000    5.0000
2240  -6.0000    5.0000
2360  -6.0000    5.0000
2500  -6.0000    5.0000
2650  -6.0000    5.0000
2800  -6.0000    5.0000
3000  -6.0000    5.0000
3150  -7.1694    5.0000
3350  -8.6449    5.0000
3399  -9.0000    5.0000
3400     -Inf    5.0000
3550     -Inf    3.6718
3750     -Inf    1.9856
4000     -Inf    0.0000
8000     -Inf    0.0000
