 100        -Inf          0
 106        -Inf          0
 112        -Inf          0
 118        -Inf          0
 125        -Inf          0
 132        -Inf          0
 140        -Inf          0
 150        -Inf          0
 160        -Inf          0
 170        -Inf          0
 180        -Inf          0
 190        -Inf          0
 200    -11.0000          0
 212    -10.2166          0
 224     -9.4764          0
 236     -8.7748          0
 250     -8.0000          0
 265     -8.0000          0
 280     -8.0000          0
 300     -8.0000          0
 315     -8.0000          0
 335     -8.0000          0
 355     -8.0000          0
 375     -8.0000          0
 400     -8.0000          0
 425     -8.0000          0
 450     -8.0000          0
 475     -8.0000          0
 500     -8.0000          0
 530     -8.0000          0
 560     -8.0000          0
 600     -8.0000          0
 630     -8.0000          0
 670     -8.0000          0
 710     -8.0000          0
 750     -8.0000          0
 800     -8.0000          0
 850     -8.0000          0
 900     -8.0000          0
 950     -8.0000          0
1000     -8.0000          0
1060     -8.0000     0.1448
1120     -8.0000     0.2817
1180     -8.0000     0.4114
1250     -8.0000     0.5546
1320     -8.0000     0.6900
1400     -8.0000     0.8362
1500     -8.0000     1.0077
1600     -8.0000     1.1681
1700     -8.0000     1.3188
1800     -8.0000     1.4608
1900     -8.0000     1.5952
2000     -8.0000     1.7227
2120     -8.0000     1.8675
2240     -8.0000     2.0044
2360     -8.0000     2.1341
2500     -8.0000     2.2773
2650     -8.0000     2.4221
2800     -8.0000     2.5590
3000     -8.0000     2.7304
3150     -8.0000     2.8517
3350     -8.0000     3.0047
3550     -8.0000     3.1488
3750     -8.0000     3.2850
4000     -8.0000     3.4454
4250     -8.0000     3.5961
4500     -8.0000     3.7381
4750     -8.0000     3.8725
5000     -8.0000     4.0000
5300     -8.7564     4.0000
5600     -9.4711     4.0000
6000    -10.3667     4.0000
6300    -11.0000     4.0000
6700        -Inf     4.0000
7100        -Inf     4.0000
7500        -Inf     4.0000
8000        -Inf     4.0000

  
    
    
    
    
    
    
    
    
    
    
    
    
    
    
    
    
    
    
    
    
    
    
    
    
    
    
    
    
    
    
    
    
    
    
    
    
    
    
    
    
    
    
    
    
    
    
    
    
    
    
    
    
    
    
    
    
    
    
    
    
    
    
    
    
    
    
    
    
    
    
    
    
    
    
    
    
    
  
  
  
  
  
  
  
  
  
  
  
  
  
  
  
  
  
  
  
  
  
  
  
  
  
  
  
  
  
  
  
  
  
  
  
  
  
  
  
  
  
  
  
  
  
  
  
  
  
  
  
  
  
  
  
  
  
  
  
  
  
  
  
  
  
  
  
  
  
  
  
  
  
  
  
  

