digraph dependencies {
    label="\nPackage ti.mas.vpe Dependency Graph";
    size="7.5,10";
    rankdir=LR;
    ranksep=".75";
    concentrate="true";
    node [fixedsize=true, width=1.5, style=filled, color=black];
    node [font=Helvetica, fontsize=12, fillcolor=lightgrey];
    ti_mas_vpe [shape=record,label="ti.mas.vpe|4, 0, 1, 0", URL="package.rel.xml"];
    node [fontsize=10, fillcolor=white];

    edge [style=solid, color=blue]
    ti_mas_types [shape=record,label="ti.mas.types|5, 0, 8, 1", URL="../../types/package/package.rel.svg"];
    ti_mas_vpe -> ti_mas_types;
    ti_mas_fract [shape=record,label="ti.mas.fract|2, 0, 8, 1", URL="../../fract/package/package.rel.svg"];
    ti_mas_vpe -> ti_mas_fract;
    ti_mas_util [shape=record,label="ti.mas.util|5, 0, 0, 0", URL="../../util/package/package.rel.svg"];
    ti_mas_vpe -> ti_mas_util;
    ti_mas_swtools [shape=record,label="ti.mas.swtools|3, 0, 0, 0", URL="../../swtools/package/package.rel.svg"];
    ti_mas_vpe -> ti_mas_swtools;

    edge [style=solid, color=lightgrey]
    ti_targets [shape=record,label="ti.targets|1, 0, 3", URL="../../../../../../apps/ti/xdc/xdctools_3_20_05_76/packages/ti/targets/package/package.rel.svg"];
    ti_mas_vpe -> ti_targets;
    xdc_services_intern_gen [shape=record,label="xdc.services.intern.gen|1, 0, 0, 0", URL="../../../../../../apps/ti/xdc/xdctools_3_20_05_76/packages/xdc/services/intern/gen/package/package.rel.svg"];
    ti_mas_vpe -> xdc_services_intern_gen;
    xdc_services_spec [shape=record,label="xdc.services.spec|1, 0, 0, 0", URL="../../../../../../apps/ti/xdc/xdctools_3_20_05_76/packages/xdc/services/spec/package/package.rel.svg"];
    ti_mas_vpe -> xdc_services_spec;
    xdc_shelf [shape=record,label="xdc.shelf|1, 0, 0", URL="../../../../../../apps/ti/xdc/xdctools_3_20_05_76/packages/xdc/shelf/package/package.rel.svg"];
    ti_mas_vpe -> xdc_shelf;
    gnu_targets [shape=record,label="gnu.targets|1, 0, 1", URL="../../../../../../apps/ti/xdc/xdctools_3_20_05_76/packages/gnu/targets/package/package.rel.svg"];
    ti_mas_vpe -> gnu_targets;
    gnu_targets_arm [shape=record,label="gnu.targets.arm|1, 0, 0, 0", URL="../../../../../../apps/ti/xdc/xdctools_3_20_05_76/packages/gnu/targets/arm/package/package.rel.svg"];
    ti_mas_vpe -> gnu_targets_arm;
    xdc [shape=record,label="xdc|1, 1, 1", URL="../../../../../../apps/ti/xdc/xdctools_3_20_05_76/packages/xdc/package/package.rel.svg"];
    ti_mas_vpe -> xdc;
    ti_targets_elf [shape=record,label="ti.targets.elf|1, 0, 0", URL="../../../../../../apps/ti/xdc/xdctools_3_20_05_76/packages/ti/targets/elf/package/package.rel.svg"];
    ti_mas_vpe -> ti_targets_elf;
    ti_mas_vpe -> ti_mas_swtools;
    xdc_bld [shape=record,label="xdc.bld|1, 0, 2", URL="../../../../../../apps/ti/xdc/xdctools_3_20_05_76/packages/xdc/bld/package/package.rel.svg"];
    ti_mas_vpe -> xdc_bld;
    xdc_services_global [shape=record,label="xdc.services.global|1, 0, 0", URL="../../../../../../apps/ti/xdc/xdctools_3_20_05_76/packages/xdc/services/global/package/package.rel.svg"];
    ti_mas_vpe -> xdc_services_global;
    xdc_services_io [shape=record,label="xdc.services.io|1, 0, 0", URL="../../../../../../apps/ti/xdc/xdctools_3_20_05_76/packages/xdc/services/io/package/package.rel.svg"];
    ti_mas_vpe -> xdc_services_io;
    xdc_services_intern_cmd [shape=record,label="xdc.services.intern.cmd|1, 0, 0, 0", URL="../../../../../../apps/ti/xdc/xdctools_3_20_05_76/packages/xdc/services/intern/cmd/package/package.rel.svg"];
    ti_mas_vpe -> xdc_services_intern_cmd;
    xdc_services_intern_xsr [shape=record,label="xdc.services.intern.xsr|1, 0, 0", URL="../../../../../../apps/ti/xdc/xdctools_3_20_05_76/packages/xdc/services/intern/xsr/package/package.rel.svg"];
    ti_mas_vpe -> xdc_services_intern_xsr;

    edge [style=solid, color=blue]
    xdc_services_intern_xsr -> xdc_services_global;

    edge [style=solid, color=lightgrey]
    xdc_services_intern_xsr -> xdc_services_spec;
    xdc_utils_tconf [shape=record,label="xdc.utils.tconf|not found"style=rounded, ];
    xdc_services_intern_xsr -> xdc_utils_tconf;
    xdc_services_intern_xsr -> xdc_shelf;
    xdc_services_intern_xsr -> xdc_services_global;
    xdc_services_intern_xsr -> xdc_services_intern_cmd;
    xdc_services_intern_xsr -> xdc_services_intern_gen;

    edge [style=solid, color=blue]

    edge [style=solid, color=lightgrey]

    edge [style=solid, color=blue]
    xdc_services_intern_cmd -> xdc_shelf;
    xdc_services_intern_cmd -> xdc_services_spec;
    xdc_services_intern_cmd -> xdc_services_global;
    xdc_services_intern_cmd -> xdc_services_intern_gen;

    edge [style=solid, color=lightgrey]
    xdc_services_intern_cmd -> xdc_services_spec;
    xdc_services_intern_cmd -> xdc_utils_tconf;
    xdc_services_intern_cmd -> xdc_shelf;
    xdc_services_intern_cmd -> xdc_services_global;
    xdc_services_intern_cmd -> xdc_services_intern_xsr;
    xdc_services_intern_cmd -> xdc_services_intern_gen;

    edge [style=solid, color=blue]

    edge [style=solid, color=lightgrey]
    xdc_services_io -> xdc_services_intern_cmd;
    host_platforms_PC [shape=record,label="host.platforms.PC|1, 0, 0", URL="../../../../../../apps/ti/xdc/xdctools_3_20_05_76/packages/host/platforms/PC/package/package.rel.svg"];
    xdc_services_io -> host_platforms_PC;
    xdc_services_io -> xdc_services_global;
    xdc_runtime [shape=record,label="xdc.runtime|2, 1, 0", URL="../../../../../../apps/ti/xdc/xdctools_3_20_05_76/packages/xdc/runtime/package/package.rel.svg"];
    xdc_services_io -> xdc_runtime;
    xdc_cfg [shape=record,label="xdc.cfg|1, 0, 2, 0", URL="../../../../../../apps/ti/xdc/xdctools_3_20_05_76/packages/xdc/cfg/package/package.rel.svg"];
    xdc_services_io -> xdc_cfg;
    xdc_services_io -> xdc_shelf;
    xdc_services_io -> xdc_utils_tconf;
    xdc_platform [shape=record,label="xdc.platform|1, 0, 1, 0", URL="../../../../../../apps/ti/xdc/xdctools_3_20_05_76/packages/xdc/platform/package/package.rel.svg"];
    xdc_services_io -> xdc_platform;
    xdc_services_io -> xdc_services_intern_gen;
    xdc_services_io -> gnu_targets;
    xdc_services_io -> xdc_services_spec;
    xdc_corevers [shape=record,label="xdc.corevers|16, 0, 2, 0", URL="../../../../../../apps/ti/xdc/xdctools_3_20_05_76/packages/xdc/corevers/package/package.rel.svg"];
    xdc_services_io -> xdc_corevers;
    xdc_services_io -> xdc_services_intern_xsr;
    xdc_rov [shape=record,label="xdc.rov|1, 0, 0", URL="../../../../../../apps/ti/xdc/xdctools_3_20_05_76/packages/xdc/rov/package/package.rel.svg"];
    xdc_services_io -> xdc_rov;
    microsoft_targets_rts [shape=record,label="microsoft.targets.rts|1, 0, 0, 0", URL="../../../../../../apps/ti/xdc/xdctools_3_20_05_76/packages/microsoft/targets/rts/package/package.rel.svg"];
    xdc_services_io -> microsoft_targets_rts;
    microsoft_targets [shape=record,label="microsoft.targets|1, 0, 2, 0", URL="../../../../../../apps/ti/xdc/xdctools_3_20_05_76/packages/microsoft/targets/package/package.rel.svg"];
    xdc_services_io -> microsoft_targets;

    edge [style=solid, color=blue]

    edge [style=solid, color=lightgrey]
    microsoft_targets -> xdc_services_intern_cmd;
    microsoft_targets -> xdc_services_intern_xsr;
    microsoft_targets -> xdc_services_global;
    microsoft_targets -> xdc_services_intern_gen;
    microsoft_targets -> xdc_shelf;
    microsoft_targets -> xdc_services_spec;

    edge [style=solid, color=blue]
    microsoft_targets_rts -> xdc_runtime;

    edge [style=solid, color=lightgrey]
    microsoft_targets_rts -> ti_targets_elf;
    microsoft_targets_rts -> xdc_services_intern_cmd;
    ti_targets_arm_elf [shape=record,label="ti.targets.arm.elf|1, 0, 0", URL="../../../../../../apps/ti/xdc/xdctools_3_20_05_76/packages/ti/targets/arm/elf/package/package.rel.svg"];
    microsoft_targets_rts -> ti_targets_arm_elf;
    xdc_runtime_knl [shape=record,label="xdc.runtime.knl|1, 0, 0", URL="../../../../../../apps/ti/xdc/xdctools_3_20_05_76/packages/xdc/runtime/knl/package/package.rel.svg"];
    microsoft_targets_rts -> xdc_runtime_knl;
    microsoft_targets_rts -> gnu_targets;
    microsoft_targets_rts -> xdc_services_global;
    microsoft_targets_rts -> xdc_services_intern_gen;
    microsoft_targets_rts -> gnu_targets_arm;
    microsoft_targets_arm [shape=record,label="microsoft.targets.arm|1, 0, 0, 0", URL="../../../../../../apps/ti/xdc/xdctools_3_20_05_76/packages/microsoft/targets/arm/package/package.rel.svg"];
    microsoft_targets_rts -> microsoft_targets_arm;
    microsoft_targets_rts -> xdc_runtime;
    microsoft_targets_rts -> xdc_services_intern_xsr;
    microsoft_targets_rts -> xdc_shelf;
    microsoft_targets_rts -> microsoft_targets;
    microsoft_targets_rts -> ti_targets;
    ti_targets_arm [shape=record,label="ti.targets.arm|2, 0, 1, 0", URL="../../../../../../apps/ti/xdc/xdctools_3_20_05_76/packages/ti/targets/arm/package/package.rel.svg"];
    microsoft_targets_rts -> ti_targets_arm;
    microsoft_targets_rts -> xdc_services_spec;

    edge [style=solid, color=blue]
    ti_targets_arm -> ti_targets;

    edge [style=solid, color=lightgrey]
    ti_targets_arm -> xdc_services_intern_cmd;
    ti_targets_arm -> xdc_services_intern_xsr;
    ti_targets_arm -> xdc_services_global;
    ti_targets_arm -> xdc_services_intern_gen;
    ti_targets_arm -> ti_targets;
    ti_targets_arm -> xdc_shelf;
    ti_targets_arm -> xdc_services_spec;

    edge [style=solid, color=blue]
    microsoft_targets_arm -> microsoft_targets;

    edge [style=solid, color=lightgrey]
    microsoft_targets_arm -> xdc_services_intern_cmd;
    microsoft_targets_arm -> xdc_services_intern_xsr;
    microsoft_targets_arm -> xdc_services_global;
    microsoft_targets_arm -> microsoft_targets;
    microsoft_targets_arm -> xdc_services_intern_gen;
    microsoft_targets_arm -> xdc_shelf;
    microsoft_targets_arm -> xdc_services_spec;

    edge [style=solid, color=blue]

    edge [style=solid, color=lightgrey]
    xdc_runtime_knl -> xdc_services_spec;
    xdc_runtime_knl -> xdc_runtime;
    xdc_runtime_knl -> xdc_utils_tconf;
    xdc_runtime_knl -> xdc_shelf;
    xdc_runtime_knl -> xdc_services_global;
    xdc_runtime_knl -> xdc_services_intern_cmd;
    xdc_runtime_knl -> xdc_services_intern_xsr;
    xdc_runtime_knl -> xdc_services_intern_gen;

    edge [style=solid, color=blue]

    edge [style=solid, color=lightgrey]
    ti_targets_arm_elf -> xdc_services_intern_cmd;
    ti_targets_arm_elf -> xdc_services_intern_xsr;
    ti_targets_arm_elf -> xdc_services_global;
    ti_targets_arm_elf -> xdc_services_intern_gen;
    ti_targets_arm_elf -> ti_targets;
    ti_targets_arm_elf -> xdc_shelf;
    ti_targets_arm_elf -> ti_targets_arm;
    ti_targets_arm_elf -> xdc_services_spec;

    edge [style=solid, color=blue]

    edge [style=solid, color=lightgrey]
    xdc_rov -> xdc_services_spec;
    xdc_rov -> xdc_utils_tconf;
    xdc_rov -> microsoft_targets;
    xdc_rov -> xdc_shelf;
    xdc_rov -> xdc_services_global;
    xdc_rov -> xdc_services_intern_cmd;
    xdc_rov -> xdc_services_intern_xsr;
    xdc_rov -> gnu_targets;
    xdc_rov -> xdc_services_intern_gen;

    edge [style=solid, color=blue]

    edge [style=solid, color=lightgrey]
    xdc_corevers -> xdc_services_spec;
    xdc_corevers -> xdc_utils_tconf;
    xdc_corevers -> xdc_shelf;
    xdc_corevers -> xdc_services_global;
    xdc_corevers -> xdc_services_intern_cmd;
    xdc_corevers -> xdc_services_intern_xsr;
    xdc_corevers -> xdc_services_intern_gen;

    edge [style=solid, color=blue]

    edge [style=solid, color=lightgrey]
    xdc_platform -> xdc_services_spec;
    xdc_platform -> xdc_utils_tconf;
    xdc_platform -> xdc_shelf;
    xdc_platform -> xdc_services_global;
    xdc_platform -> xdc_services_intern_cmd;
    xdc_platform -> xdc_services_intern_xsr;
    xdc_platform -> xdc_services_intern_gen;

    edge [style=solid, color=blue]
    xdc_cfg -> xdc_services_global;

    edge [style=solid, color=lightgrey]
    xdc_cfg -> xdc_services_spec;
    xdc_cfg -> xdc_utils_tconf;
    xdc_cfg -> xdc_shelf;
    xdc_cfg -> xdc_services_global;
    xdc_cfg -> xdc_services_intern_cmd;
    xdc_cfg -> xdc_services_intern_xsr;
    xdc_cfg -> xdc_services_intern_gen;
    xdc_cfg -> xdc_platform;

    edge [style=solid, color=blue]

    edge [style=solid, color=lightgrey]
    xdc_runtime -> xdc_services_spec;
    xdc_runtime -> xdc_utils_tconf;
    xdc_runtime -> xdc_shelf;
    xdc_runtime -> xdc_services_global;
    xdc_runtime -> xdc_services_intern_cmd;
    xdc_runtime -> xdc_services_intern_xsr;
    xdc_runtime -> xdc_rov;
    xdc_runtime -> xdc_services_intern_gen;

    edge [style=solid, color=blue]
    host_platforms_PC -> xdc_platform;

    edge [style=solid, color=lightgrey]
    host_platforms_PC -> xdc_services_spec;
    host_platforms_PC -> xdc_utils_tconf;
    host_platforms_PC -> microsoft_targets;
    host_platforms_PC -> xdc_shelf;
    host_platforms_PC -> xdc_services_global;
    host_platforms_PC -> xdc_services_intern_cmd;
    host_platforms_PC -> xdc_services_intern_xsr;
    host_platforms_PC -> gnu_targets;
    host_platforms_PC -> xdc_platform;
    host_platforms_PC -> xdc_services_intern_gen;

    edge [style=solid, color=blue]

    edge [style=solid, color=lightgrey]
    xdc_services_global -> xdc_services_spec;
    xdc_services_global -> xdc_utils_tconf;
    xdc_services_global -> xdc_shelf;
    xdc_services_global -> xdc_services_intern_cmd;
    xdc_services_global -> xdc_services_intern_xsr;
    xdc_services_global -> xdc_services_intern_gen;

    edge [style=solid, color=blue]
    xdc_bld -> xdc_services_global;
    xdc_bld -> xdc_services_intern_cmd;

    edge [style=solid, color=lightgrey]
    xdc_bld -> xdc_services_spec;
    xdc_bld -> xdc_utils_tconf;
    xdc_bld -> xdc_shelf;
    xdc_bld -> xdc_services_global;
    xdc_bld -> xdc_services_intern_cmd;
    xdc_bld -> xdc_services_intern_xsr;
    xdc_bld -> xdc;
    xdc_bld -> xdc_services_intern_gen;

    edge [style=solid, color=blue]

    edge [style=solid, color=lightgrey]
    ti_targets_elf -> xdc_services_intern_cmd;
    ti_targets_elf -> xdc_services_intern_xsr;
    ti_targets_elf -> xdc_services_global;
    ti_targets_elf -> xdc_services_intern_gen;
    ti_targets_elf -> ti_targets;
    ti_targets_elf -> xdc_shelf;
    ti_targets_elf -> xdc_services_spec;

    edge [style=solid, color=blue]

    edge [style=solid, color=lightgrey]
    xdc -> xdc_services_global;
    xdc -> xdc_utils_tconf;

    edge [style=solid, color=blue]
    gnu_targets_arm -> gnu_targets;

    edge [style=solid, color=lightgrey]
    gnu_targets_arm -> xdc_services_intern_cmd;
    gnu_targets_arm -> xdc_services_intern_xsr;
    gnu_targets_arm -> xdc_services_global;
    gnu_targets_arm -> xdc_services_intern_gen;
    gnu_targets_arm -> gnu_targets;
    gnu_targets_arm -> xdc_shelf;
    gnu_targets_arm -> xdc_services_spec;

    edge [style=solid, color=blue]

    edge [style=solid, color=lightgrey]
    gnu_targets -> xdc_services_intern_cmd;
    gnu_targets -> xdc_services_intern_xsr;
    gnu_targets -> xdc_services_global;
    gnu_targets -> xdc_services_intern_gen;
    gnu_targets -> xdc_shelf;
    gnu_targets -> xdc_services_spec;

    edge [style=solid, color=blue]

    edge [style=solid, color=lightgrey]
    xdc_shelf -> xdc_services_spec;
    xdc_shelf -> xdc_utils_tconf;
    xdc_shelf -> xdc_services_global;
    xdc_shelf -> xdc_services_intern_cmd;
    xdc_shelf -> xdc_services_intern_xsr;
    xdc_shelf -> xdc_services_intern_gen;

    edge [style=solid, color=blue]
    xdc_services_spec -> xdc_shelf;

    edge [style=solid, color=lightgrey]
    xdc_services_spec -> xdc_utils_tconf;
    xdc_services_spec -> xdc_shelf;
    xdc_services_spec -> xdc_services_global;
    xdc_services_spec -> xdc_services_intern_cmd;
    xdc_services_spec -> xdc_services_intern_xsr;
    xdc_services_spec -> xdc_services_intern_gen;

    edge [style=solid, color=blue]
    xdc_services_intern_gen -> xdc_shelf;
    xdc_services_intern_gen -> xdc_services_spec;
    xdc_services_intern_gen -> xdc_services_global;
    xdc_services_intern_gen -> xdc_services_intern_xsr;

    edge [style=solid, color=lightgrey]
    xdc_services_intern_gen -> xdc_services_spec;
    xdc_services_intern_gen -> xdc_utils_tconf;
    xdc_services_intern_gen -> xdc_shelf;
    xdc_services_intern_gen -> xdc_services_global;
    xdc_services_intern_gen -> xdc_services_intern_cmd;
    xdc_services_intern_gen -> xdc_services_intern_xsr;

    edge [style=solid, color=blue]

    edge [style=solid, color=lightgrey]
    ti_targets -> xdc_services_intern_cmd;
    ti_targets -> xdc_services_intern_xsr;
    ti_targets -> xdc_services_global;
    ti_targets -> xdc_services_intern_gen;
    ti_targets -> xdc_shelf;
    ti_targets -> xdc_services_spec;

    edge [style=solid, color=blue]

    edge [style=solid, color=lightgrey]
    ti_mas_swtools -> ti_targets;
    ti_mas_swtools -> xdc_services_intern_gen;
    ti_mas_swtools -> xdc_services_spec;
    ti_mas_swtools -> xdc_shelf;
    ti_mas_swtools -> gnu_targets;
    ti_mas_swtools -> gnu_targets_arm;
    ti_mas_swtools -> ti_targets_elf;
    ti_mas_swtools -> xdc_services_global;
    ti_mas_swtools -> xdc_services_intern_cmd;
    ti_mas_swtools -> xdc_services_intern_xsr;

    edge [style=solid, color=blue]
    ti_mas_util -> ti_mas_types;
    ti_mas_util -> ti_mas_fract;
    ti_mas_asm [shape=record,label="ti.mas.asm|3, 0, 4, 1", URL="../../asm/package/package.rel.svg"];
    ti_mas_util -> ti_mas_asm;
    ti_xdais [shape=record,label="ti.xdais|1, 2.0, 1", URL="../../../../../../apps/ti/codec_engine/codec_engine_2_10_01/cetools/packages/ti/xdais/package/package.rel.svg"];
    ti_mas_util -> ti_xdais;
    ti_mas_util -> ti_mas_swtools;

    edge [style=solid, color=lightgrey]
    ti_mas_util -> ti_targets;
    ti_mas_util -> xdc_services_intern_gen;
    ti_mas_util -> xdc_services_spec;
    ti_mas_util -> xdc_shelf;
    ti_mas_util -> gnu_targets;
    ti_mas_util -> gnu_targets_arm;
    ti_mas_util -> ti_targets_elf;
    ti_mas_util -> ti_mas_swtools;
    ti_mas_util -> xdc_services_global;
    ti_mas_util -> xdc_services_io;
    ti_mas_util -> xdc_services_intern_cmd;
    ti_mas_util -> xdc_services_intern_xsr;

    edge [style=solid, color=blue]

    edge [style=solid, color=lightgrey]
    ti_xdais -> xdc_services_intern_gen;
    ti_xdais -> xdc_shelf;
    ti_xdais -> gnu_targets;
    ti_xdais -> xdc_services_global;
    ti_xdais -> xdc_corevers;
    ti_xdais -> xdc_services_spec;
    ti_xdais -> ti_targets;
    ti_xdais -> xdc_services_intern_cmd;
    ti_xdais -> xdc_services_intern_xsr;

    edge [style=solid, color=blue]
    ti_mas_asm -> ti_mas_swtools;

    edge [style=solid, color=lightgrey]
    ti_mas_asm -> ti_targets;
    ti_mas_asm -> xdc_services_intern_gen;
    ti_mas_asm -> xdc_services_spec;
    ti_mas_asm -> xdc_shelf;
    ti_mas_asm -> gnu_targets;
    ti_mas_asm -> gnu_targets_arm;
    ti_mas_asm -> ti_targets_elf;
    ti_mas_asm -> ti_mas_swtools;
    ti_mas_asm -> xdc_services_global;
    ti_mas_asm -> xdc_services_intern_cmd;
    ti_mas_asm -> xdc_services_intern_xsr;

    edge [style=solid, color=blue]
    ti_mas_fract -> ti_mas_types;
    ti_mas_fract -> ti_mas_swtools;

    edge [style=solid, color=lightgrey]
    ti_mas_fract -> ti_targets;
    ti_mas_fract -> xdc_services_intern_gen;
    ti_mas_fract -> xdc_services_spec;
    ti_mas_fract -> xdc_shelf;
    ti_mas_fract -> gnu_targets;
    ti_mas_fract -> gnu_targets_arm;
    ti_mas_fract -> ti_targets_elf;
    ti_mas_fract -> ti_mas_swtools;
    ti_mas_fract -> xdc_services_global;
    ti_mas_fract -> xdc_services_intern_cmd;
    ti_mas_fract -> xdc_services_intern_xsr;

    edge [style=solid, color=blue]
    ti_mas_types -> ti_mas_swtools;

    edge [style=solid, color=lightgrey]
    ti_mas_types -> ti_targets;
    ti_mas_types -> xdc_services_intern_gen;
    ti_mas_types -> xdc_services_spec;
    ti_mas_types -> xdc_shelf;
    ti_mas_types -> gnu_targets;
    ti_mas_types -> gnu_targets_arm;
    ti_mas_types -> ti_targets_elf;
    ti_mas_types -> ti_mas_swtools;
    ti_mas_types -> xdc_services_global;
    ti_mas_types -> xdc_services_intern_cmd;
    ti_mas_types -> xdc_services_intern_xsr;
}
